{
  "instruments": [
    {
      "name": "QBSA",
      "instrument": "Profit",
      "soundFontPath": "",
      "parameters": {
        "amplitude"                           : 0.63,
        "polyModSourceAmountFilterEnvelope"   : 0,
        "polyModSourceAmountOscillatorB"      : 0,
        "polyModDestinationFrequencyA"        : 0,
        "polyModDestinationPulseWidthA"       : 0,
        "polyModDestinationFilter"            : 0,
        "lfoFrequency"                        : 0,
        "lfoShape"                            : 0,
        "wheelModSourceAmount"                : 1,
        "wheelModDestinationFrequencyA"       : 0,
        "wheelModDestinationFrequencyB"       : 0,
        "wheelModDestinationPulseWidthA"      : 1,
        "wheelModDestinationPulseWidthB"      : 1,
        "wheelModDestinationFilter"           : 0,
        "oscillatorAFrequency"                : 0,
        "oscillatorAPulseWidth"               : 0.5,
        "oscillatorASawtooth"                 : 1,
        "oscillatorAPulse"                    : 1,
        "oscillatorASync"                     : 1,
        "mixerOscillatorALevel"               : 0.48564401905360766,
        "mixerOscillatorBLevel"               : 0.4864351906095179,
        "mixerNoiseLevel"                     : 0,
        "oscillatorBFrequency"                : 0,
        "oscillatorBFineTuningCentsAdjustment": 0,
        "oscillatorBPulseWidth"               : 0.5,
        "oscillatorBSawtooth"                 : 1,
        "oscillatorBTriangle"                 : 0,
        "oscillatorBPulse"                    : 1,
        "oscillatorBLfo"                      : 0,
        "filterCutoffFrequency"               : 0.2626967083970846,
        "filterResonance"                     : 0,
        "filterEnvelopeAmount"                : 0.025047847663404302,
        "filterKeyboardAmount"                : 1,
        "filterAttack"                        : 0,
        "filterDecay"                         : 0,
        "filterSustain"                       : 1,
        "filterRelease"                       : 0.5,
        "amplifierAttack"                     : 0,
        "amplifierDecay"                      : 0.8,
        "amplifierSustain"                    : 0.37,
        "amplifierRelease"                    : 0.09016178578,
        "wheelModAmount"                      : 0.2266666666666666
      },
      "midiChannel": 0
    }
  ],
  "parameterRenamings": {
    "aa": "amplifierAttack",
    "rel": "amplifierRelease",
    "amp": "amplitude"
  }
}
